{
	"log": {
		"version": "1.2",
		"creator": {
			"name": "Insomnia REST Client",
			"version": "insomnia.desktop.app:v12.1.0"
		},
		"entries": [
			{
				"startedDateTime": "2025-12-01T12:24:02.455Z",
				"time": 9.699,
				"request": {
					"method": "GET",
					"url": "http://localhost:9090/tasks?page=1&size=2",
					"httpVersion": "HTTP/1.1",
					"cookies": [],
					"headers": [
						{
							"name": "User-Agent",
							"value": "insomnia/12.1.0"
						}
					],
					"queryString": [],
					"postData": {
						"mimeType": "",
						"text": ""
					},
					"headersSize": -1,
					"bodySize": -1
				},
				"response": {
					"status": 200,
					"statusText": "",
					"httpVersion": "HTTP/1.1",
					"cookies": [],
					"headers": [
						{
							"name": "Content-Type",
							"value": "application/json"
						},
						{
							"name": "Transfer-Encoding",
							"value": "chunked"
						},
						{
							"name": "Date",
							"value": "Mon, 01 Dec 2025 12:09:09 GMT"
						}
					],
					"content": {
						"size": 840,
						"mimeType": "application/json",
						"text": "{\"content\":[{\"taskId\":\"abc-125\",\"executeAt\":\"2025-12-02T04:39:59Z\",\"payloadJson\":\"{\\\"type\\\": \\\"email\\\", \\\"target\\\": \\\"hello@example.com\\\", \\\"message\\\": \\\"This is a scheduled task!\\\"}\",\"status\":\"PENDING\",\"createdAt\":\"2025-12-01T04:43:35Z\",\"updatedAt\":\"2025-12-01T04:43:35Z\"},{\"taskId\":\"abc-126\",\"executeAt\":\"2025-12-02T04:39:59Z\",\"payloadJson\":\"{\\\"type\\\": \\\"email\\\", \\\"target\\\": \\\"hello@example.com\\\", \\\"message\\\": \\\"This is a scheduled task!\\\"}\",\"status\":\"PENDING\",\"createdAt\":\"2025-12-01T04:43:38Z\",\"updatedAt\":\"2025-12-01T04:43:38Z\"}],\"pageable\":{\"pageNumber\":1,\"pageSize\":2,\"sort\":{\"empty\":true,\"sorted\":false,\"unsorted\":true},\"offset\":2,\"paged\":true,\"unpaged\":false},\"last\":false,\"totalElements\":17,\"totalPages\":9,\"first\":false,\"size\":2,\"number\":1,\"sort\":{\"empty\":true,\"sorted\":false,\"unsorted\":true},\"numberOfElements\":2,\"empty\":false}"
					},
					"redirectURL": "",
					"headersSize": -1,
					"bodySize": -1
				},
				"cache": {},
				"timings": {
					"blocked": -1,
					"dns": -1,
					"connect": -1,
					"send": 0,
					"wait": 9.699,
					"receive": 0,
					"ssl": -1
				},
				"comment": "listPendingTasks"
			},
			{
				"startedDateTime": "2025-12-01T12:24:02.455Z",
				"time": 2475.121,
				"request": {
					"method": "GET",
					"url": "http://localhost:9090/tasks/abc-140",
					"httpVersion": "HTTP/1.1",
					"cookies": [],
					"headers": [
						{
							"name": "User-Agent",
							"value": "insomnia/12.1.0"
						}
					],
					"queryString": [],
					"postData": {
						"mimeType": "",
						"text": ""
					},
					"headersSize": -1,
					"bodySize": -1
				},
				"response": {
					"status": 200,
					"statusText": "",
					"httpVersion": "HTTP/1.1",
					"cookies": [],
					"headers": [
						{
							"name": "Content-Type",
							"value": "application/json"
						},
						{
							"name": "Transfer-Encoding",
							"value": "chunked"
						},
						{
							"name": "Date",
							"value": "Mon, 01 Dec 2025 11:12:43 GMT"
						}
					],
					"content": {
						"size": 261,
						"mimeType": "application/json",
						"text": "{\"taskId\":\"abc-140\",\"executeAt\":\"2025-12-01T09:41:59Z\",\"payloadJson\":\"{\\\"type\\\": \\\"email\\\", \\\"target\\\": \\\"hello@example.com\\\", \\\"message\\\": \\\"This is a scheduled task!\\\"}\",\"status\":\"PENDING\",\"createdAt\":\"2025-12-01T09:41:31Z\",\"updatedAt\":\"2025-12-01T09:41:31Z\"}"
					},
					"redirectURL": "",
					"headersSize": -1,
					"bodySize": -1
				},
				"cache": {},
				"timings": {
					"blocked": -1,
					"dns": -1,
					"connect": -1,
					"send": 0,
					"wait": 2475.121,
					"receive": 0,
					"ssl": -1
				},
				"comment": "getTask"
			},
			{
				"startedDateTime": "2025-12-01T12:24:02.455Z",
				"time": 394.202,
				"request": {
					"method": "POST",
					"url": "http://localhost:9090/tasks",
					"httpVersion": "HTTP/1.1",
					"cookies": [],
					"headers": [
						{
							"name": "Content-Type",
							"value": "application/json"
						},
						{
							"name": "User-Agent",
							"value": "insomnia/12.1.0"
						}
					],
					"queryString": [],
					"postData": {
						"mimeType": "application/json",
						"text": "{\n  \"taskId\": \"abc-123\",\n  \"executeAt\": \"2025-12-01T13:43:59Z\",\n  \"payload\": {\n    \"type\": \"email\",\n    \"target\": \"hello@example.com\",\n    \"message\": \"This is a scheduled task!\"\n  }\n}"
					},
					"headersSize": -1,
					"bodySize": -1
				},
				"response": {
					"status": 200,
					"statusText": "",
					"httpVersion": "HTTP/1.1",
					"cookies": [],
					"headers": [
						{
							"name": "Content-Type",
							"value": "application/json"
						},
						{
							"name": "Transfer-Encoding",
							"value": "chunked"
						},
						{
							"name": "Date",
							"value": "Mon, 01 Dec 2025 12:20:46 GMT"
						}
					],
					"content": {
						"size": 270,
						"mimeType": "application/json",
						"text": "{\"taskId\":\"abc-123\",\"executeAt\":\"2025-12-01T13:43:59Z\",\"payloadJson\":\"{\\\"message\\\":\\\"This is a scheduled task!\\\",\\\"target\\\":\\\"hello@example.com\\\",\\\"type\\\":\\\"email\\\"}\",\"status\":\"PENDING\",\"createdAt\":\"2025-12-01T12:20:45.995409Z\",\"updatedAt\":\"2025-12-01T12:20:45.995410Z\"}"
					},
					"redirectURL": "",
					"headersSize": -1,
					"bodySize": -1
				},
				"cache": {},
				"timings": {
					"blocked": -1,
					"dns": -1,
					"connect": -1,
					"send": 0,
					"wait": 394.202,
					"receive": 0,
					"ssl": -1
				},
				"comment": "createTask"
			},
			{
				"startedDateTime": "2025-12-01T12:24:02.455Z",
				"time": 5653.721,
				"request": {
					"method": "DELETE",
					"url": "http://localhost:9090/tasks/abc-138",
					"httpVersion": "HTTP/1.1",
					"cookies": [],
					"headers": [
						{
							"name": "User-Agent",
							"value": "insomnia/12.1.0"
						}
					],
					"queryString": [],
					"postData": {
						"mimeType": "",
						"text": ""
					},
					"headersSize": -1,
					"bodySize": -1
				},
				"response": {
					"status": 200,
					"statusText": "",
					"httpVersion": "HTTP/1.1",
					"cookies": [],
					"headers": [
						{
							"name": "Content-Length",
							"value": "0"
						},
						{
							"name": "Date",
							"value": "Mon, 01 Dec 2025 12:13:16 GMT"
						}
					],
					"content": {
						"size": 0,
						"mimeType": "",
						"text": ""
					},
					"redirectURL": "",
					"headersSize": -1,
					"bodySize": -1
				},
				"cache": {},
				"timings": {
					"blocked": -1,
					"dns": -1,
					"connect": -1,
					"send": 0,
					"wait": 5653.721,
					"receive": 0,
					"ssl": -1
				},
				"comment": "cancelTask"
			}
		]
	}
}